<svg width="6" height="4" viewBox="0 0 6 4" fill="none" xmlns="http://www.w3.org/2000/svg">
<path fill-rule="evenodd" clip-rule="evenodd" d="M5.35355 0.146447C5.54882 0.341709 5.54882 0.658291 5.35355 0.853553L3.10355 3.10355C2.90829 3.29882 2.59171 3.29882 2.39645 3.10355L0.146447 0.853553C-0.0488153 0.658291 -0.0488153 0.341709 0.146447 0.146446C0.341709 -0.0488158 0.658292 -0.0488158 0.853554 0.146446L2.75 2.04289L4.64645 0.146447C4.84171 -0.0488156 5.15829 -0.0488156 5.35355 0.146447Z" fill="black"/>
</svg>
