<svg width="515" height="282" viewBox="0 0 515 282" fill="none" xmlns="http://www.w3.org/2000/svg">
<mask id="path-1-inside-1_4408_7265" fill="white">
<path fill-rule="evenodd" clip-rule="evenodd" d="M205 40H20C8.95431 40 0 48.9543 0 60V262C0 273.046 8.95429 282 20 282H495C506.046 282 515 273.046 515 262V60C515 48.9543 506.046 40 495 40H309C309 68.7188 285.719 92 257 92C228.281 92 205 68.7188 205 40Z"/>
</mask>
<path fill-rule="evenodd" clip-rule="evenodd" d="M205 40H20C8.95431 40 0 48.9543 0 60V262C0 273.046 8.95429 282 20 282H495C506.046 282 515 273.046 515 262V60C515 48.9543 506.046 40 495 40H309C309 68.7188 285.719 92 257 92C228.281 92 205 68.7188 205 40Z" fill="#2F2F2F"/>
<path d="M205 40H206V39H205V40ZM309 40V39H308V40H309ZM20 41H205V39H20V41ZM1 60C1 49.5066 9.50659 41 20 41V39C8.40202 39 -1 48.402 -1 60H1ZM1 262V60H-1V262H1ZM20 281C9.50658 281 1 272.493 1 262H-1C-1 273.598 8.40201 283 20 283V281ZM495 281H20V283H495V281ZM514 262C514 272.493 505.493 281 495 281V283C506.598 283 516 273.598 516 262H514ZM514 60V262H516V60H514ZM495 41C505.493 41 514 49.5066 514 60H516C516 48.402 506.598 39 495 39V41ZM309 41H495V39H309V41ZM257 93C286.271 93 310 69.2711 310 40H308C308 68.1665 285.167 91 257 91V93ZM204 40C204 69.2711 227.729 93 257 93V91C228.833 91 206 68.1665 206 40H204Z" fill="url(#paint0_linear_4408_7265)" mask="url(#path-1-inside-1_4408_7265)"/>
<rect width="80" height="80" rx="40" transform="matrix(-1 0 0 1 297 0)" fill="#00F0FF"/>
<path d="M240.45 27.6668C241.783 21.9001 250.466 21.9001 251.783 27.6668C252.566 31.0501 250.416 33.9168 248.55 35.7001C247.183 37.0001 245.033 36.9835 243.666 35.7001C241.816 33.9168 239.666 31.0501 240.45 27.6668Z" stroke="#292D32" stroke-width="2.5"/>
<path d="M262.117 47.6668C263.45 41.9001 272.183 41.9001 273.517 47.6668C274.3 51.0501 272.15 53.9168 270.267 55.7001C268.9 57.0001 266.733 56.9835 265.367 55.7001C263.483 53.9168 261.333 51.0501 262.117 47.6668Z" stroke="#10A2AD" stroke-width="2.5"/>
<path d="M257 28.333H261.466C264.55 28.333 265.983 32.1497 263.666 34.183L250.35 45.833C248.033 47.8497 249.466 51.6663 252.533 51.6663H257" stroke="#292D32" stroke-width="2.5" stroke-linecap="round" stroke-linejoin="round"/>
<path d="M246.144 29.1663H246.163" stroke="#292D32" stroke-width="3.33333" stroke-linecap="round" stroke-linejoin="round"/>
<path d="M267.81 49.1663H267.829" stroke="#10A2AD" stroke-width="3.33333" stroke-linecap="round" stroke-linejoin="round"/>
<defs>
<linearGradient id="paint0_linear_4408_7265" x1="-75.5" y1="102" x2="501.258" y2="369.626" gradientUnits="userSpaceOnUse">
<stop stop-color="#00F0FF"/>
<stop offset="1" stop-color="#00F0FF" stop-opacity="0"/>
</linearGradient>
</defs>
</svg>
