<svg width="80" height="80" viewBox="0 0 80 80" fill="none" xmlns="http://www.w3.org/2000/svg">
<rect width="80" height="80" rx="40" transform="matrix(-1 0 0 1 80 0)" fill="#00F0FF"/>
<path d="M25.2842 32.4014L40.0008 40.918L54.6175 32.4513" stroke="black" stroke-width="2.5" stroke-linecap="round" stroke-linejoin="round"/>
<path d="M40.001 56.0171V40.9004" stroke="black" stroke-width="2.5" stroke-linecap="round" stroke-linejoin="round"/>
<path d="M36.551 24.134L27.651 29.084C25.6343 30.2007 23.9844 33.0007 23.9844 35.3007V44.7174C23.9844 47.0174 25.6343 49.8173 27.651 50.934L36.551 55.8841C38.451 56.9341 41.5677 56.9341 43.4677 55.8841L52.3677 50.934C54.3844 49.8173 56.0343 47.0174 56.0343 44.7174V35.3007C56.0343 33.0007 54.3844 30.2007 52.3677 29.084L43.4677 24.134C41.551 23.0673 38.451 23.0673 36.551 24.134Z" stroke="black" stroke-width="2.5" stroke-linecap="round" stroke-linejoin="round"/>
<path d="M48.3323 42.0664V35.9664L32.5156 26.833" stroke="black" stroke-opacity="0.5" stroke-width="2.5" stroke-linecap="round" stroke-linejoin="round"/>
</svg>
