<svg width="515" height="282" viewBox="0 0 515 282" fill="none" xmlns="http://www.w3.org/2000/svg">
<mask id="path-1-inside-1_4408_7264" fill="white">
<path fill-rule="evenodd" clip-rule="evenodd" d="M205 40H20C8.95431 40 0 48.9543 0 60V262C0 273.046 8.95429 282 20 282H495C506.046 282 515 273.046 515 262V60C515 48.9543 506.046 40 495 40H309C309 68.7188 285.719 92 257 92C228.281 92 205 68.7188 205 40Z"/>
</mask>
<path fill-rule="evenodd" clip-rule="evenodd" d="M205 40H20C8.95431 40 0 48.9543 0 60V262C0 273.046 8.95429 282 20 282H495C506.046 282 515 273.046 515 262V60C515 48.9543 506.046 40 495 40H309C309 68.7188 285.719 92 257 92C228.281 92 205 68.7188 205 40Z" fill="#2F2F2F"/>
<path d="M205 40H206V39H205V40ZM309 40V39H308V40H309ZM20 41H205V39H20V41ZM1 60C1 49.5066 9.50659 41 20 41V39C8.40202 39 -1 48.402 -1 60H1ZM1 262V60H-1V262H1ZM20 281C9.50658 281 1 272.493 1 262H-1C-1 273.598 8.40201 283 20 283V281ZM495 281H20V283H495V281ZM514 262C514 272.493 505.493 281 495 281V283C506.598 283 516 273.598 516 262H514ZM514 60V262H516V60H514ZM495 41C505.493 41 514 49.5066 514 60H516C516 48.402 506.598 39 495 39V41ZM309 41H495V39H309V41ZM257 93C286.271 93 310 69.2711 310 40H308C308 68.1665 285.167 91 257 91V93ZM204 40C204 69.2711 227.729 93 257 93V91C228.833 91 206 68.1665 206 40H204Z" fill="url(#paint0_linear_4408_7264)" mask="url(#path-1-inside-1_4408_7264)"/>
<rect width="80" height="80" rx="40" transform="matrix(-1 0 0 1 297 0)" fill="#00F0FF"/>
<path opacity="0.4" d="M256.999 43.333H258.666C260.499 43.333 261.999 41.833 261.999 39.9997V23.333H246.999C244.499 23.333 242.316 24.7163 241.183 26.7497" stroke="#292D32" stroke-width="2.5" stroke-linecap="round" stroke-linejoin="round"/>
<path d="M240.334 48.333C240.334 51.0997 242.567 53.333 245.334 53.333H247.001C247.001 51.4997 248.501 49.9997 250.334 49.9997C252.167 49.9997 253.667 51.4997 253.667 53.333H260.334C260.334 51.4997 261.834 49.9997 263.667 49.9997C265.501 49.9997 267.001 51.4997 267.001 53.333H268.667C271.434 53.333 273.667 51.0997 273.667 48.333V43.333H268.667C267.751 43.333 267.001 42.583 267.001 41.6663V36.6663C267.001 35.7497 267.751 34.9997 268.667 34.9997H270.817L267.967 30.0164C267.367 28.983 266.267 28.333 265.067 28.333H262.001V39.9997C262.001 41.833 260.501 43.333 258.667 43.333H257.001" stroke="#292D32" stroke-width="2.5" stroke-linecap="round" stroke-linejoin="round"/>
<path d="M250.333 56.6667C252.174 56.6667 253.667 55.1743 253.667 53.3333C253.667 51.4924 252.174 50 250.333 50C248.492 50 247 51.4924 247 53.3333C247 55.1743 248.492 56.6667 250.333 56.6667Z" stroke="#292D32" stroke-width="2.5" stroke-linecap="round" stroke-linejoin="round"/>
<path d="M263.666 56.6667C265.507 56.6667 267 55.1743 267 53.3333C267 51.4924 265.507 50 263.666 50C261.825 50 260.333 51.4924 260.333 53.3333C260.333 55.1743 261.825 56.6667 263.666 56.6667Z" stroke="#292D32" stroke-width="2.5" stroke-linecap="round" stroke-linejoin="round"/>
<path d="M273.667 40V43.3333H268.667C267.75 43.3333 267 42.5833 267 41.6667V36.6667C267 35.75 267.75 35 268.667 35H270.817L273.667 40Z" stroke="#292D32" stroke-width="2.5" stroke-linecap="round" stroke-linejoin="round"/>
<path d="M240.334 33.333H250.334" stroke="#292D32" stroke-width="2.5" stroke-linecap="round" stroke-linejoin="round"/>
<path d="M240.334 38.333H247.001" stroke="#292D32" stroke-width="2.5" stroke-linecap="round" stroke-linejoin="round"/>
<path d="M240.334 43.333H243.667" stroke="#292D32" stroke-width="2.5" stroke-linecap="round" stroke-linejoin="round"/>
<defs>
<linearGradient id="paint0_linear_4408_7264" x1="-75.5" y1="102" x2="501.258" y2="369.626" gradientUnits="userSpaceOnUse">
<stop stop-color="#00F0FF"/>
<stop offset="1" stop-color="#00F0FF" stop-opacity="0"/>
</linearGradient>
</defs>
</svg>
