<svg width="60" height="60" viewBox="0 0 60 60" fill="none" xmlns="http://www.w3.org/2000/svg">
<g opacity="0.4">
<path d="M7.92969 18.5996L30.0047 31.3746L51.9296 18.6745" stroke="#CACED7" stroke-width="3.75" stroke-linecap="round" stroke-linejoin="round"/>
<path d="M30 54.0251V31.3501" stroke="#CACED7" stroke-width="3.75" stroke-linecap="round" stroke-linejoin="round"/>
<path d="M54.0265 22.925V37.0751C54.0265 37.2001 54.0265 37.3 54.0015 37.425C52.2515 35.9 50.0015 35 47.5015 35C45.1515 35 42.9765 35.8251 41.2515 37.2001C38.9515 39.0251 37.5015 41.85 37.5015 45C37.5015 46.875 38.0265 48.65 38.9515 50.15C39.1765 50.55 39.4515 50.9251 39.7515 51.2751L35.1765 53.8001C32.3265 55.4001 27.6765 55.4001 24.8265 53.8001L11.4765 46.4C8.45152 44.725 5.97656 40.5251 5.97656 37.0751V22.925C5.97656 19.475 8.45152 15.2751 11.4765 13.6001L24.8265 6.2C27.6765 4.6 32.3265 4.6 35.1765 6.2L48.5265 13.6001C51.5515 15.2751 54.0265 19.475 54.0265 22.925Z" stroke="#CACED7" stroke-width="3.75" stroke-linecap="round" stroke-linejoin="round"/>
</g>
<path d="M58.0029 44.7775C58.0529 46.6525 57.5528 48.4276 56.6528 49.9526C56.1528 50.8526 55.4779 51.6776 54.7279 52.3526C53.0029 53.9526 50.7278 54.9276 48.2028 55.0026C44.5528 55.0776 41.3279 53.2026 39.5529 50.3276C38.6029 48.8526 38.0279 47.0777 38.0029 45.2027C37.9279 42.0527 39.3279 39.2026 41.5779 37.3276C43.2779 35.9276 45.4279 35.0526 47.7779 35.0026C53.3029 34.8776 57.8779 39.2525 58.0029 44.7775Z" stroke="#00F0FF" stroke-width="3.75" stroke-miterlimit="10" stroke-linecap="round" stroke-linejoin="round"/>
<path d="M44.1016 45.0774L46.6266 47.4773L51.8516 42.4272" stroke="#00F0FF" stroke-width="3.75" stroke-linecap="round" stroke-linejoin="round"/>
</svg>
