<svg width="24" height="24" viewBox="0 0 24 24" fill="none" xmlns="http://www.w3.org/2000/svg">
<path d="M21.3469 17.9344C21.3469 18.2719 21.2719 18.6188 21.1125 18.9563C20.9531 19.2938 20.7469 19.6125 20.475 19.9125C20.0156 20.4188 19.5094 20.7844 18.9375 21.0188C18.375 21.2531 17.7656 21.375 17.1094 21.375C16.1531 21.375 15.1312 21.15 14.0531 20.6906C12.975 20.2313 11.8969 19.6125 10.8281 18.8344C9.75 18.0469 8.72812 17.175 7.75312 16.2094C6.7875 15.2344 5.91562 14.2125 5.1375 13.1438C4.36875 12.075 3.75 11.0063 3.3 9.94688C2.85 8.87813 2.625 7.85625 2.625 6.88125C2.625 6.24375 2.7375 5.63438 2.9625 5.07188C3.1875 4.5 3.54375 3.975 4.04062 3.50625C4.64062 2.91563 5.29688 2.625 5.99063 2.625C6.25313 2.625 6.51563 2.68125 6.75 2.79375C6.99375 2.90625 7.20938 3.075 7.37813 3.31875L9.55313 6.38438C9.72188 6.61875 9.84375 6.83438 9.92812 7.04063C10.0125 7.2375 10.0594 7.43438 10.0594 7.6125C10.0594 7.8375 9.99375 8.0625 9.8625 8.27812C9.74063 8.49375 9.5625 8.71875 9.3375 8.94375L8.625 9.68437C8.52187 9.7875 8.475 9.90938 8.475 10.0594C8.475 10.1344 8.48438 10.2 8.50313 10.275C8.53125 10.35 8.55938 10.4062 8.57813 10.4625C8.74688 10.7719 9.0375 11.175 9.45 11.6625C9.87187 12.15 10.3219 12.6469 10.8094 13.1438C11.3156 13.6406 11.8031 14.1 12.3 14.5219C12.7875 14.9344 13.1906 15.2156 13.5094 15.3844C13.5562 15.4031 13.6125 15.4312 13.6781 15.4594C13.7531 15.4875 13.8281 15.4969 13.9125 15.4969C14.0719 15.4969 14.1937 15.4406 14.2969 15.3375L15.0094 14.6344C15.2438 14.4 15.4688 14.2219 15.6844 14.1094C15.9 13.9781 16.1156 13.9125 16.35 13.9125C16.5281 13.9125 16.7156 13.95 16.9219 14.0344C17.1281 14.1188 17.3438 14.2406 17.5781 14.4L20.6813 16.6031C20.925 16.7719 21.0937 16.9687 21.1969 17.2031C21.2906 17.4375 21.3469 17.6719 21.3469 17.9344Z" stroke="#282828" stroke-width="1.875" stroke-miterlimit="10"/>
</svg>
