<svg width="23" height="21" viewBox="0 0 23 21" fill="none" xmlns="http://www.w3.org/2000/svg">
<path fill-rule="evenodd" clip-rule="evenodd" d="M8.27551 0.737601C8.72833 0.964009 8.91187 1.51463 8.68546 1.96745L6.75219 5.83398H16.3111L14.3778 1.96745C14.1514 1.51463 14.3349 0.964009 14.7877 0.737601C15.2406 0.511193 15.7912 0.694733 16.0176 1.14755L18.3608 5.83398H21.3091C21.9841 5.83398 22.5314 6.38119 22.5314 7.05621V10.7229C22.5314 11.3942 21.9902 11.9391 21.3203 11.9451L19.9926 19.9777C19.895 20.5678 19.3848 21.0006 18.7867 21.0006H4.30456C3.70647 21.0006 3.19623 20.5678 3.0987 19.9777L1.771 11.9451H1.75348C1.07846 11.9451 0.53125 11.3979 0.53125 10.7229V7.05621C0.53125 6.38119 1.07846 5.83398 1.75348 5.83398H4.70245L7.04567 1.14755C7.27207 0.694733 7.82269 0.511193 8.27551 0.737601ZM2.36459 10.1118V7.66733H20.698V10.1118H2.36459ZM3.62947 11.9466L4.82296 19.1673H18.2683L19.4618 11.9466H3.62947ZM12.4476 13.78C12.4476 13.2737 12.0372 12.8633 11.5309 12.8633C11.0247 12.8633 10.6143 13.2737 10.6143 13.78V17.4466C10.6143 17.9529 11.0247 18.3633 11.5309 18.3633C12.0372 18.3633 12.4476 17.9529 12.4476 17.4466V13.78ZM15.8092 12.8633C16.3155 12.8633 16.7259 13.2737 16.7259 13.78V17.4466C16.7259 17.9529 16.3155 18.3633 15.8092 18.3633C15.303 18.3633 14.8926 17.9529 14.8926 17.4466V13.78C14.8926 13.2737 15.303 12.8633 15.8092 12.8633ZM8.17026 13.78C8.17026 13.2737 7.75985 12.8633 7.25359 12.8633C6.74732 12.8633 6.33691 13.2737 6.33691 13.78V17.4466C6.33691 17.9529 6.74732 18.3633 7.25359 18.3633C7.75985 18.3633 8.17026 17.9529 8.17026 17.4466V13.78Z" fill="#ffffff"/>
</svg>
