<svg width="24" height="24" viewBox="0 0 24 24" fill="none" xmlns="http://www.w3.org/2000/svg">
<g filter="url(#filter0_b_4401_7703)">
<path d="M12 23.5C5.64873 23.5 0.500001 18.3513 0.500001 12C0.500002 5.64872 5.64873 0.499999 12 0.499999C18.3513 0.5 23.5 5.64873 23.5 12C23.5 18.3513 18.3513 23.5 12 23.5Z" stroke="#EBEBEB"/>
</g>
<path d="M12.1458 9.66667C11.9027 9.66667 11.6696 9.76324 11.4977 9.93515C11.3257 10.1071 11.2292 10.3402 11.2292 10.5833V16.0833C11.2292 16.3264 11.3257 16.5596 11.4977 16.7315C11.6696 16.9034 11.9027 17 12.1458 17C12.3889 17 12.6221 16.9034 12.794 16.7315C12.9659 16.5596 13.0625 16.3264 13.0625 16.0833V10.5833C13.0625 10.3402 12.9659 10.1071 12.794 9.93515C12.6221 9.76324 12.3889 9.66667 12.1458 9.66667ZM12.1458 6C11.9192 6 11.6977 6.0672 11.5092 6.19311C11.3208 6.31901 11.1739 6.49797 11.0872 6.70734C11.0005 6.91672 10.9778 7.1471 11.022 7.36937C11.0662 7.59164 11.1754 7.79581 11.3356 7.95606C11.4959 8.11631 11.7 8.22544 11.9223 8.26965C12.1446 8.31386 12.375 8.29117 12.5843 8.20445C12.7937 8.11772 12.9727 7.97086 13.0986 7.78242C13.2245 7.59399 13.2917 7.37246 13.2917 7.14583C13.2917 6.84194 13.1709 6.55049 12.9561 6.33561C12.7412 6.12072 12.4497 6 12.1458 6Z" fill="#2F2F2F"/>
<defs>
<filter id="filter0_b_4401_7703" x="-3" y="-3" width="30" height="30" filterUnits="userSpaceOnUse" color-interpolation-filters="sRGB">
<feFlood flood-opacity="0" result="BackgroundImageFix"/>
<feGaussianBlur in="BackgroundImageFix" stdDeviation="1.5"/>
<feComposite in2="SourceAlpha" operator="in" result="effect1_backgroundBlur_4401_7703"/>
<feBlend mode="normal" in="SourceGraphic" in2="effect1_backgroundBlur_4401_7703" result="shape"/>
</filter>
</defs>
</svg>
