<svg width="22" height="22" viewBox="0 0 22 22" fill="none" xmlns="http://www.w3.org/2000/svg">
<path fill-rule="evenodd" clip-rule="evenodd" d="M19.1036 4.22555C18.158 3.27955 16.8753 2.74805 15.5378 2.74805C14.2002 2.74805 12.9175 3.27955 11.9719 4.22555L11.0003 5.19722L10.0286 4.22555C8.05925 2.2562 4.86629 2.2562 2.89694 4.22555C0.927583 6.19491 0.927583 9.38786 2.89694 11.3572L3.86861 12.3289L11.0003 19.4606L18.1319 12.3289L19.1036 11.3572C20.0496 10.4117 20.5811 9.12893 20.5811 7.79139C20.5811 6.45384 20.0496 5.17112 19.1036 4.22555Z" stroke="#ffffff" stroke-width="1.83333" stroke-linecap="round" stroke-linejoin="round"/>
</svg>
