<svg width="165" height="59" viewBox="0 0 165 59" fill="none" xmlns="http://www.w3.org/2000/svg">
<path d="M149.098 32.9739C148.832 33.546 148.624 34.1506 148.292 34.6837C147.063 36.6599 145.282 37.9666 143.156 38.8572C141.752 39.4423 140.302 39.7739 138.788 39.8389C138.105 39.8714 137.585 40.1964 137.097 40.632C136.759 40.9375 136.389 41.2106 135.96 41.5551C136.064 40.7815 135.953 40.1509 135.557 39.6114C135.394 39.3838 135.154 39.1823 134.907 39.0523C134.198 38.6752 133.528 38.2527 132.943 37.6936C135.869 38.5127 138.814 38.6947 141.746 37.8366C144.671 36.9785 147.232 35.5418 148.994 32.9414C149.033 32.9479 149.066 32.9609 149.098 32.9739Z" fill="#00F0FF"/>
<path d="M28.9158 41.5213C28.4608 41.1508 28.0252 40.8192 27.6156 40.4552C27.1736 40.0651 26.673 39.8571 26.0879 39.8311C23.8516 39.7271 21.7778 39.0705 19.886 37.8938C18.3193 36.9187 17.0321 35.6575 16.2455 33.9607C16.096 33.6357 15.9855 33.2846 15.8555 32.9336C16.3885 33.5382 16.8696 34.1493 17.4222 34.6888C18.7289 35.9565 20.3086 36.7886 21.9923 37.4452C24.0791 38.2579 26.2439 38.5114 28.4543 38.3229C29.5464 38.2253 30.6191 37.9393 31.6982 37.7378C31.7892 37.7183 31.8803 37.6923 32.0103 37.7183C31.6332 37.9978 31.2692 38.2904 30.8791 38.5504C30.5866 38.7454 30.255 38.8949 29.943 39.064C29.3384 39.3955 29.0848 39.9611 28.9678 40.5917C28.9158 40.8712 28.9353 41.1508 28.9158 41.5213Z" fill="#00F0FF"/>
<path d="M35.8526 0C36.4572 0.182026 37.0813 0.318544 37.6664 0.559078C38.4465 0.884124 38.8755 1.54722 39.0121 2.35334C39.1421 3.08794 39.4736 3.71203 39.8247 4.34912C40.3968 5.36977 40.9428 6.39691 41.2419 7.53457C41.3914 8.11966 41.5344 8.75025 41.2484 9.28332C40.9233 9.90741 40.4813 10.486 40.0067 10.9996C39.5516 11.4936 38.882 11.6172 38.2319 11.7017C36.6717 11.8967 35.1505 11.5912 33.6293 11.3441C32.6607 11.1881 31.6985 11.0126 30.7299 10.8435C30.0603 10.7265 29.5272 10.33 28.9876 9.94642C28.6041 9.67338 28.2075 9.33533 27.6939 9.51736C27.3429 9.64087 26.9983 9.8164 26.6993 10.0374C25.6006 10.8435 24.8985 11.9552 24.3265 13.1774C23.6569 14.6011 22.9548 16.0118 22.2397 17.4095C21.8626 18.1441 21.7066 18.9112 21.7001 19.7173C21.6741 21.6221 21.258 23.4423 20.6534 25.2301C20.4519 25.8282 20.2309 26.4198 20.0033 27.0569C20.4974 26.9658 20.959 26.8748 21.427 26.7968C22.9808 26.5498 24.5345 26.5433 26.0557 26.9853C28.1295 27.5834 29.7092 28.8316 30.7949 30.6974C30.9249 30.9184 31.0484 30.9769 31.2825 30.8924C31.536 30.8014 31.8025 30.7429 32.1081 30.6584C31.8805 32.6086 32.1926 34.4484 32.9207 36.2297C32.8882 36.2492 32.8557 36.2687 32.8232 36.2882C32.0561 35.1765 31.2695 34.0714 30.5218 32.9467C29.9563 32.0951 29.4687 31.1849 28.8901 30.3398C27.6874 28.5716 25.9257 27.8825 23.8649 27.798C22.1096 27.7264 20.4259 28.0515 18.7877 28.6626C17.4225 29.1697 16.0768 29.7157 14.6986 30.1838C13.808 30.4893 12.8783 30.6909 11.9682 30.9379C11.9552 30.8989 11.9422 30.8599 11.9292 30.8209C12.3453 30.6584 12.7678 30.5088 13.1774 30.3398C13.6129 30.1513 14.0485 29.9628 14.4646 29.7352C14.8676 29.5207 15.2447 29.2542 15.6087 28.9616C13.3789 29.6637 11.1166 29.7742 8.77625 29.4947C9.65388 29.3647 10.4925 29.2672 11.3181 29.1111C12.8523 28.8121 14.328 28.318 15.6737 27.5119C16.7724 26.8488 17.559 25.8737 18.0596 24.684C18.5471 23.5204 18.9372 22.3177 19.1387 21.063C19.1582 20.959 19.1647 20.8485 19.1582 20.7445C19.1517 20.3934 18.9762 20.2374 18.6447 20.3284C18.1896 20.4584 17.741 20.6144 17.299 20.7965C16.2068 21.2515 15.0886 21.5961 13.912 21.7586C13.834 21.7716 13.7625 21.7716 13.6844 21.7781C13.6584 21.7781 13.6324 21.7651 13.5609 21.7521C14.1395 21.4726 14.6791 21.2255 15.2187 20.9525C16.3758 20.3674 17.533 19.7563 18.4626 18.8332C19.1452 18.1506 19.7563 17.39 20.3284 16.6099C21.6221 14.8351 22.7922 12.9889 23.7609 11.0126C23.8389 10.8565 23.9039 10.694 23.9559 10.5315C24.1379 9.97242 23.7154 9.49785 23.1498 9.67338C22.6492 9.8294 22.1682 10.0504 21.7001 10.291C20.6274 10.8435 19.5743 11.4286 18.5081 11.9942C18.4886 11.9617 18.4691 11.9292 18.4496 11.8967C18.8397 11.6172 19.2232 11.3246 19.6263 11.0581C20.9135 10.2 22.1877 9.32883 23.4943 8.51621C24.2029 8.07415 24.4825 7.50207 24.4565 6.69595C24.4305 5.90284 24.4695 5.10973 24.554 4.31662C24.6255 4.79118 24.6645 5.27225 24.788 5.73382C24.9115 6.19538 25.1066 6.65045 25.3146 7.08601C25.5226 7.52157 25.9647 7.58658 26.3873 7.62559C27.811 7.7621 29.1697 7.56058 30.3788 6.73496C30.7104 6.50743 31.0094 6.24739 31.367 5.96785C31.601 6.14988 31.523 6.57244 31.484 6.96899C31.4125 7.65809 31.2304 7.80761 30.5218 7.79461C30.1968 7.78811 29.9303 7.80761 29.8393 8.21067C29.7482 8.63323 29.8067 8.88677 30.1513 9.1013C31.2695 9.8034 33.2977 9.22481 33.6488 8.06115C33.8438 7.41106 33.9478 6.74146 34.0779 6.07187C34.1364 5.77932 34.1559 5.48678 34.2534 5.18774C34.2794 5.49978 34.3314 5.81833 34.3314 6.13037C34.3249 6.85197 34.3119 7.57358 34.2664 8.29518C34.2534 8.51621 34.1494 8.73074 34.0584 8.93877C33.8698 9.35483 33.9218 9.69938 34.2339 9.88141C34.5199 10.0569 34.9295 9.94641 35.1375 9.56286C35.3325 9.19881 35.5211 8.80225 35.5861 8.39269C35.7356 7.50857 35.8136 6.61794 35.9111 5.72731C35.9566 5.31776 35.9826 4.9082 36.0736 4.49214C36.1061 4.76518 36.1581 5.03822 36.1712 5.31126C36.2232 6.3384 36.2817 7.36555 36.3012 8.39269C36.3077 8.77625 36.2037 9.15981 36.1842 9.54986C36.1712 9.75139 36.1712 10.0504 36.2882 10.1284C36.4767 10.2585 36.7822 10.317 37.0033 10.265C37.4778 10.1544 37.7379 9.77089 37.8939 9.32233C38.1474 8.58122 38.0629 7.83362 37.9589 7.07951C37.7964 5.92235 37.6534 4.76518 37.4973 3.60801C37.4843 3.5235 37.4973 3.43249 37.5428 3.34148C37.6599 3.86155 37.7574 4.38162 37.9004 4.8952C38.1409 5.76632 38.4335 6.62444 38.6545 7.50207C38.7715 7.97664 38.7585 8.49021 38.856 8.97128C38.895 9.17931 39.0316 9.40684 39.1941 9.54986C39.3696 9.69938 39.5776 9.67338 39.7857 9.46535C40.3512 8.89977 40.2862 8.26918 40.0782 7.59958C39.7077 6.40341 39.0446 5.35026 38.479 4.2451C38.2319 3.76404 38.0369 3.23096 37.9329 2.69788C37.7704 1.90477 37.2698 1.52122 36.5612 1.31319C36.4962 1.29369 36.4182 1.31319 36.3792 1.31319C36.3402 1.66424 36.3077 2.00229 36.2752 2.33383C35.8916 1.60573 35.4626 1.00765 34.5069 1.19617C34.806 1.83326 34.7279 2.43785 34.4614 3.10744C34.3314 2.16481 33.8958 1.61873 33.0832 1.48871C32.6932 1.4237 32.2706 1.54072 31.8675 1.57322C31.588 1.59273 31.3085 1.62523 31.0289 1.61223C29.9498 1.58623 28.8966 1.74875 27.8565 2.00879C26.8293 2.26882 25.7892 2.45735 24.7815 2.7759C23.6244 3.13995 22.7142 3.87455 21.9276 4.80419C21.167 5.70781 20.3219 6.55293 19.4833 7.39155C18.5341 8.33419 17.5265 9.21831 16.5839 10.1739C15.6347 11.1361 14.7636 12.1632 13.821 13.1319C12.5988 14.38 11.3311 15.5827 10.1024 16.8244C8.89977 18.0401 7.7361 19.2882 6.81947 20.738C6.44242 21.336 6.15638 21.9991 5.86384 22.6492C5.31126 23.8909 4.73917 25.1261 4.26461 26.4003C4.05008 26.9853 3.99807 27.6419 3.95256 28.2725C3.89405 29.1437 4.28411 29.8718 4.97971 30.3593C5.6038 30.7949 6.3059 31.1069 6.97549 31.471C7.10551 31.5425 7.24853 31.5815 7.47606 31.6725C6.57244 31.8545 5.76632 32.0561 4.9277 31.9716C4.57015 31.9325 4.2451 31.9781 4.03707 32.2901C3.84205 32.5891 3.93956 32.8882 4.12159 33.1677C4.62216 33.9478 5.37627 34.4419 6.13688 34.9165C7.30704 35.6446 8.61373 35.9371 9.95942 36.1451C11.7732 36.4247 13.5804 36.7432 15.3877 37.0488C15.4917 37.0683 15.5892 37.1008 15.7192 37.1398C14.8741 37.2438 14.0615 37.3088 13.2619 37.4648C12.6443 37.5884 12.0267 37.7769 11.4546 38.0304C10.8435 38.297 10.746 38.739 11.1751 39.2591C11.6497 39.8442 12.1632 40.4098 12.7288 40.9038C14.172 42.152 15.7972 43.1206 17.6045 43.7317C18.5211 44.0438 19.4768 44.2583 20.4324 44.4598C22.0771 44.8109 23.7479 44.9734 25.4316 44.8109C26.4328 44.7134 27.4274 44.5768 28.357 44.1543C28.9226 43.8942 29.4037 43.5497 29.7482 43.0816C30.1838 43.4457 30.5804 43.8617 31.0549 44.1543C32.3616 44.9539 33.8048 45.1684 35.3065 44.9344C35.8721 44.8499 36.0021 44.6289 35.8461 44.0568C35.6901 43.4847 35.4691 42.9321 35.274 42.373C34.8905 41.2679 34.5524 40.1562 34.5719 38.9666C34.5719 38.843 34.5914 38.7195 34.6564 38.583C34.8645 39.0511 35.0855 39.5126 35.274 39.9872C35.8071 41.3069 36.7692 42.269 37.8614 43.1271C38.5895 43.6992 39.3371 44.2583 40.0847 44.8044C40.1952 44.8824 40.3577 44.9344 40.4943 44.9344C68.4808 44.9409 96.4672 44.9409 124.454 44.9344C124.564 44.9344 124.701 44.9214 124.785 44.8629C126.04 43.9918 127.249 43.0751 128.341 41.996C129.004 41.3459 129.427 40.5463 129.797 39.7142C129.967 39.3371 130.123 38.96 130.344 38.583C130.357 38.7065 130.376 38.8365 130.383 38.9601C130.409 40.1497 130.071 41.2614 129.68 42.3665C129.485 42.9256 129.264 43.4782 129.108 44.0503C128.952 44.6289 129.095 44.8564 129.68 44.9344C131.579 45.1749 133.321 44.8369 134.764 43.4782C134.901 43.3482 135.018 43.1857 135.154 43.0296C136.142 44.2713 137.553 44.5443 139.003 44.7459C140.628 44.9734 142.247 44.8434 143.852 44.5899C147.291 44.0503 150.373 42.7501 152.902 40.2992C153.227 39.9872 153.513 39.6296 153.786 39.2656C154.182 38.7195 154.111 38.31 153.506 38.0369C152.96 37.7899 152.382 37.5949 151.797 37.4843C150.971 37.3218 150.126 37.2633 149.216 37.1463C149.671 37.0423 150.061 36.9318 150.464 36.8667C151.699 36.6652 152.941 36.5027 154.176 36.2817C155.229 36.0996 156.289 35.9306 157.309 35.6251C158.59 35.2415 159.695 34.5069 160.599 33.5188C160.8 33.2977 160.95 32.9922 161.008 32.6997C161.093 32.2641 160.709 31.9065 160.209 31.9651C159.409 32.0561 158.636 31.913 157.862 31.757C157.771 31.7375 157.673 31.731 157.569 31.6595C157.673 31.614 157.777 31.5815 157.875 31.5295C158.493 31.2174 159.13 30.9444 159.708 30.5869C160.807 29.9108 161.171 28.8771 161.008 27.6289C160.878 26.6213 160.501 25.6917 160.085 24.775C159.552 23.6049 159.013 22.4347 158.447 21.284C157.914 20.1984 157.14 19.2752 156.315 18.4041C154.839 16.8439 153.305 15.3422 151.81 13.795C150.587 12.5338 149.398 11.2336 148.176 9.97242C147.552 9.32883 146.862 8.75025 146.225 8.11966C145.211 7.11852 144.191 6.12387 143.228 5.07072C142.728 4.51814 142.266 3.93956 141.642 3.517C140.817 2.95792 139.906 2.61987 138.938 2.41184C137.885 2.18431 136.831 1.94378 135.772 1.74875C135.284 1.65774 134.784 1.66424 134.29 1.62523C133.581 1.57322 132.866 1.53422 132.157 1.46271C131.676 1.4172 130.955 1.81376 130.734 2.30783C130.63 2.54186 130.565 2.7889 130.474 3.05544C130.227 2.44435 130.155 1.83976 130.441 1.22217C129.687 1.02715 129.277 1.30019 128.686 2.34033C128.647 2.00229 128.608 1.66424 128.569 1.32619C128.003 1.30669 127.223 1.76175 127.126 2.35334C126.911 3.71203 126.124 4.79768 125.539 5.98735C125.175 6.73496 124.837 7.48907 124.72 8.32768C124.642 8.88026 124.961 9.23131 125.279 9.57586C125.487 9.79689 126.092 9.49785 126.085 9.1403C126.053 7.35255 126.918 5.77932 127.249 4.08258C127.301 3.83555 127.334 3.58851 127.405 3.34148C127.405 3.65352 127.438 3.97857 127.399 4.28411C127.256 5.36327 127.074 6.44242 126.931 7.52157C126.827 8.30168 126.827 9.07529 127.282 9.77739C127.555 10.2 128.023 10.4015 128.413 10.2845C128.725 10.187 128.874 9.95942 128.796 9.64087C128.569 8.70474 128.608 7.75561 128.686 6.80647C128.738 6.10437 128.79 5.40227 128.842 4.70667C128.848 4.63516 128.861 4.57015 128.933 4.49864C128.965 4.8952 128.991 5.29825 129.037 5.69481C129.141 6.60494 129.225 7.52157 129.368 8.4252C129.446 8.91927 129.602 9.41334 129.999 9.77739C130.214 9.97892 130.454 9.99842 130.688 9.88791C130.942 9.76439 131.072 9.53036 130.994 9.23781C130.935 9.02328 130.792 8.82176 130.766 8.60723C130.688 8.05465 130.61 7.49557 130.604 6.94299C130.591 6.36441 130.656 5.77932 130.76 5.18774C130.799 5.47378 130.825 5.75332 130.87 6.03936C130.955 6.55944 131.046 7.07951 131.15 7.59958C131.371 8.68524 132.131 9.1598 133.145 9.36133C133.783 9.48485 134.368 9.38734 134.907 9.02328C135.174 8.84126 135.213 8.55522 135.096 8.15216C135.011 7.84662 134.81 7.77511 134.53 7.80111C134.387 7.81411 134.244 7.82712 134.108 7.79461C133.958 7.75561 133.789 7.7036 133.679 7.59958C133.334 7.26154 133.373 6.21489 133.705 5.88334C135.057 7.55408 136.87 7.82061 138.84 7.59308C139.49 7.52157 139.757 7.0145 139.919 6.47492C140.134 5.77282 140.27 5.04472 140.433 4.36212C140.452 4.81068 140.492 5.31126 140.505 5.81833C140.518 6.24089 140.498 6.66345 140.492 7.08601C140.492 7.76211 140.888 8.15866 141.415 8.49671C142.721 9.34183 144.015 10.2 145.309 11.0581C145.712 11.3246 146.102 11.6172 146.498 11.8967C146.485 11.9227 146.472 11.9487 146.459 11.9682C145.803 11.6367 145.14 11.3051 144.49 10.9671C143.774 10.5965 143.066 10.2 142.351 9.8359C142.162 9.73839 141.948 9.67988 141.74 9.64087C141.226 9.53686 140.784 10.0114 140.992 10.4925C141.285 11.1751 141.597 11.8577 141.987 12.4883C142.884 13.951 143.833 15.3812 144.769 16.8179C145.998 18.7032 147.734 19.9838 149.736 20.946C150.275 21.206 150.815 21.4661 151.342 21.7911C150.912 21.7196 150.47 21.6936 150.061 21.5701C149.105 21.2775 148.163 20.933 147.213 20.6079C146.927 20.5104 146.648 20.3999 146.355 20.3284C145.978 20.2374 145.757 20.3869 145.816 20.7705C145.907 21.4075 146.03 22.0511 146.212 22.6687C146.433 23.4098 146.674 24.1574 146.999 24.8595C147.604 26.1662 148.533 27.1804 149.859 27.8305C151.556 28.6626 153.35 29.1372 155.216 29.3777C155.379 29.3972 155.541 29.3972 155.704 29.4102C155.853 29.4232 156.003 29.4492 156.243 29.4882C155.008 29.6572 153.87 29.6767 152.726 29.5987C151.582 29.5142 150.47 29.2997 149.372 28.9616C150.451 29.8783 151.751 30.3658 153.058 30.8339C153.045 30.8729 153.032 30.9119 153.019 30.9509C152.122 30.7104 151.205 30.5218 150.334 30.2228C149.053 29.7807 147.799 29.2542 146.524 28.7796C145.328 28.3375 144.1 27.9865 142.825 27.863C141.213 27.7069 139.627 27.785 138.138 28.5196C137.157 29.0006 136.435 29.7742 135.856 30.6779C135.135 31.8025 134.465 32.9662 133.731 34.0844C133.23 34.845 132.658 35.5601 132.092 36.2752C132.794 34.0648 132.996 33.5643 132.892 30.6974C133.178 30.7754 133.458 30.8404 133.724 30.9249C133.932 30.9899 134.043 30.9509 134.166 30.7494C135.681 28.2075 137.937 26.8878 140.869 26.6863C142.136 26.6018 143.371 26.7513 144.607 27.0178C144.717 27.0438 144.834 27.0569 144.984 27.0829C144.782 26.5173 144.581 25.9972 144.405 25.4706C143.93 24.0664 143.527 22.6427 143.365 21.167C143.306 20.6274 143.293 20.0879 143.28 19.5483C143.261 18.5211 142.851 17.6305 142.396 16.7399C141.707 15.4007 141.057 14.0355 140.4 12.6768C139.887 11.6172 139.172 10.72 138.236 10.0114C137.956 9.8034 137.618 9.64738 137.287 9.53686C136.766 9.36133 136.376 9.69288 135.993 9.95942C135.499 10.304 135.024 10.7005 134.407 10.811C132.879 11.0841 131.351 11.3571 129.81 11.5781C128.978 11.6952 128.133 11.7602 127.295 11.7537C126.495 11.7472 125.656 11.6497 125.052 11.0646C124.558 10.5835 124.122 10.0114 123.784 9.40684C123.414 8.75675 123.602 8.03514 123.791 7.35255C124.109 6.22138 124.675 5.20074 125.247 4.1866C125.572 3.60802 125.838 3.02943 125.962 2.35984C126.17 1.23518 126.924 0.585082 127.984 0.266536C128.354 0.156021 128.738 0.0910114 129.121 0.00649934C129.622 0.00649934 130.116 0.00649934 130.617 0.00649934C130.805 0.0520058 130.987 0.117017 131.176 0.143021C132.053 0.260038 132.931 0.377052 133.809 0.461564C134.504 0.533074 135.219 0.500572 135.908 0.630591C137.267 0.884127 138.619 1.17667 139.952 1.51471C141.577 1.93077 142.923 2.8084 143.956 4.14759C144.236 4.50514 144.529 4.85619 144.854 5.16824C146.635 6.86498 148.41 8.56822 150.223 10.226C152.544 12.3453 154.898 14.4256 157.238 16.5189C158.096 17.2795 158.948 18.0401 159.591 19.0022C161.067 21.206 162.127 23.5984 162.926 26.1207C163.154 26.8488 163.407 27.5834 163.778 28.2465C164.181 28.9551 164.733 29.5792 165 30.3788C165 30.7039 165 31.0289 165 31.354C164.98 31.38 164.948 31.406 164.941 31.432C164.818 32.1341 164.48 32.7322 163.999 33.2392C163.414 33.8568 162.764 34.4224 162.198 35.0595C161.464 35.8916 160.605 36.5742 159.721 37.2373C159.013 37.7639 158.213 38.2059 157.816 39.0706C157.712 39.2916 157.543 39.4801 157.4 39.6817C156.081 41.5019 154.436 42.9906 152.616 44.2908C151.121 45.3635 149.515 46.2606 147.89 47.1122C146.661 47.7623 145.374 48.2694 144.008 48.5424C141.74 48.9975 139.438 49.082 137.131 49.108C136.298 49.1145 135.466 49.186 134.634 49.212C134.361 49.2185 134.186 49.3485 134.062 49.5696C133.815 49.9986 133.555 50.4277 133.327 50.8697C132.599 52.2804 131.884 53.6976 131.156 55.1083C130.948 55.5114 130.727 55.8885 130.279 56.142C128.822 56.9481 127.288 57.5007 125.656 57.7867C124.772 57.9428 123.882 58.1118 122.991 58.1053C121.964 58.1053 120.917 58.1443 119.897 57.8582C118.752 57.5397 117.608 57.2341 116.458 56.9286C116.243 56.8701 116.022 56.7856 115.801 56.7856C93.9189 56.7791 72.0368 56.7791 50.1546 56.7726C49.3615 56.7726 48.6334 56.9091 47.8793 57.1496C46.7287 57.5137 45.552 57.8322 44.3623 57.9948C43.3222 58.1313 42.2625 58.1573 41.1964 58.0468C38.83 57.8062 36.5742 57.2602 34.5199 56.0185C34.3574 55.921 34.1949 55.7649 34.1039 55.5959C33.5578 54.5883 33.0442 53.5676 32.5111 52.56C32.0041 51.5913 31.484 50.6357 30.9769 49.6671C30.8274 49.3875 30.6259 49.225 30.2878 49.212C29.5077 49.186 28.7341 49.147 27.954 49.108C26.2702 49.0235 24.5865 48.978 22.9028 48.8415C21.115 48.6919 19.3793 48.2629 17.767 47.4503C15.6672 46.4036 13.6259 45.2594 11.7537 43.8357C9.79689 42.3405 8.09365 40.6243 6.80647 38.5115C6.71546 38.362 6.57894 38.2254 6.44242 38.1149C5.57779 37.4388 4.67416 36.8017 3.84205 36.0866C3.19845 35.5341 2.63287 34.884 2.03479 34.2794C1.67074 33.9088 1.29368 33.5513 0.936133 33.1807C0.448563 32.6672 0.201529 32.0301 0 31.367C0 31.0419 0 30.7169 0 30.3918C0.27954 29.8718 0.520074 29.3192 0.851622 28.8316C1.23518 28.2725 1.55372 27.7069 1.76175 27.0634C2.44435 24.9245 3.19195 22.8183 4.29061 20.8485C4.9277 19.7043 5.57779 18.5666 6.53993 17.663C7.48907 16.7659 8.48371 15.9143 9.45235 15.0431C11.2921 13.3919 13.1384 11.7537 14.9716 10.0959C16.2783 8.90627 17.585 7.7101 18.8592 6.48142C19.6198 5.74682 20.3674 4.99271 21.037 4.1736C22.0121 2.98393 23.1888 2.1063 24.6515 1.67074C25.8217 1.32619 27.0178 1.09865 28.2075 0.819115C29.2672 0.57208 30.3398 0.539576 31.419 0.474567C32.4136 0.416058 33.3953 0.182026 34.3899 0.0325046C34.858 0 35.352 0 35.8526 0ZM118.258 56.337C119.565 56.7011 120.794 56.9026 122.055 56.9416C123.401 56.9806 124.727 56.7986 126.046 56.5451C126.749 56.4085 127.301 56.129 127.743 55.5114C128.673 54.2177 129.596 52.9305 130.266 51.4873C130.545 50.8827 130.74 50.2392 130.929 49.6021C131.072 49.108 130.935 48.6594 130.448 48.4124C129.908 48.1459 129.368 47.8403 128.79 47.7038C127.444 47.3853 126.3 47.7363 125.435 48.887C124.421 50.2327 123.355 51.5393 122.347 52.8915C121.418 54.1332 120.306 55.1474 118.928 55.869C118.72 55.9795 118.531 56.1485 118.258 56.337ZM46.7287 56.337C46.7352 56.3045 46.7352 56.2655 46.7417 56.233C46.5726 56.1485 46.3971 56.064 46.2281 55.973C45.1619 55.3879 44.1218 54.7768 43.3417 53.8147C42.8931 53.2621 42.4315 52.7225 41.9895 52.1634C41.1574 51.0908 40.3317 50.0051 39.5126 48.926C39.1681 48.4709 38.791 48.0678 38.2449 47.8533C36.8928 47.3202 35.6641 47.6713 34.4874 48.3929C34.0128 48.6854 33.8373 49.108 33.9998 49.6086C34.2534 50.3952 34.5069 51.1948 34.8775 51.9294C35.6316 53.4116 36.5872 54.7768 37.6469 56.064C37.7444 56.181 37.9004 56.259 38.0434 56.311C39.2591 56.6946 40.5073 56.8441 41.7684 56.9351C42.9516 57.0196 44.1218 56.8896 45.2789 56.6751C45.773 56.5776 46.2476 56.4475 46.7287 56.337Z" fill="#00F0FF"/>
<path d="M48.1848 39.4154L48.8414 39.7014V41.8728H44.1348V39.7014L45.2204 39.4154V34.3382L44.1348 34.0521V31.8613H54.6598V34.0521L53.5741 34.3382V39.4154L54.6598 39.7014V41.8728H49.9596V39.7014L50.6032 39.4154V34.0521H48.1848V39.4154Z" fill="#00F0FF"/>
<path d="M62.2005 41.8786H58.1114L55.9531 40.0909V33.6094L58.0399 31.8672H62.285L64.3718 33.6094V40.0909C63.6437 40.6759 62.9286 41.287 62.2005 41.8786ZM59.2816 34.3375L58.898 34.6366V39.0832L59.3011 39.4148H61.0304L61.4334 39.0832V34.6366L61.0499 34.3375H59.2816Z" fill="#00F0FF"/>
<path d="M75.0592 36.698L72.9854 38.4273H69.6829V39.4284L70.7685 39.7144V41.8728H65.6328V39.7014L66.7185 39.4154V34.3382L65.6328 34.0521V31.8613H72.9854L75.0592 33.6036V36.698ZM69.6764 34.3382V35.9569H71.7242L72.0947 35.6449V34.6437L71.7242 34.3447H69.6764V34.3382Z" fill="#00F0FF"/>
<path d="M82.3333 41.8786H78.2442L76.0859 40.0909V33.6094L78.1727 31.8672H82.4178L84.5046 33.6094V40.0909C83.783 40.6759 83.0679 41.287 82.3333 41.8786ZM79.4209 34.3375L79.0374 34.6366V39.0832L79.4404 39.4148H81.1697L81.5727 39.0832V34.6366L81.1892 34.3375H79.4209Z" fill="#00F0FF"/>
<path d="M92.4902 35.9966L92.2041 34.1633H89.7988V39.4095L91.1705 39.6956V41.8669H85.7617V39.6956L86.8474 39.4095V34.3323L85.7617 34.0463V31.8555H94.5835V35.9901H92.4902V35.9966Z" fill="#00F0FF"/>
<path d="M105.004 40.1325L102.931 41.8747H95.5781V39.6839L96.6638 39.3979V34.3271L95.5781 34.0411V31.8698H100.714V34.0281L99.6282 34.3141V35.3153H102.931L105.004 37.0445V40.1325ZM101.676 39.4044L102.047 39.1053V38.1042L101.676 37.7921H99.6282V39.4109H101.676V39.4044ZM109.451 34.3401V39.4174L110.537 39.7034V41.8747H105.414V39.7034L106.5 39.4174V34.3401L105.414 34.0541V31.8633H110.537V34.0541L109.451 34.3401Z" fill="#00F0FF"/>
<path d="M114.93 38.3057L112.883 36.6155V34.3401L111.797 34.0541V31.8633H116.517V34.0541L115.86 34.3401V35.8288L116.218 36.1279H117.96L118.317 35.8288V34.3401L117.518 34.0541V31.8633H122.354V34.0541L121.269 34.3401V39.4174L122.354 39.7034V41.8747H117.232V39.7034L118.317 39.4174V37.5711L117.531 38.2992H114.93V38.3057Z" fill="#00F0FF"/>
</svg>
