<svg width="71" height="71" viewBox="0 0 71 71" fill="none" xmlns="http://www.w3.org/2000/svg">
<circle cx="35.5" cy="35.5" r="32.0196" fill="white" stroke="#23B54F" stroke-width="6.96078"/>
<path d="M36.1963 35.5C35.2732 35.5 34.388 35.1333 33.7353 34.4806C33.0826 33.8279 32.7159 32.9427 32.7159 32.0196C32.7159 31.0966 33.0826 30.2113 33.7353 29.5586C34.388 28.9059 35.2732 28.5392 36.1963 28.5392C37.1193 28.5392 38.0046 28.9059 38.6573 29.5586C39.31 30.2113 39.6767 31.0966 39.6767 32.0196C39.6767 32.4767 39.5866 32.9293 39.4117 33.3515C39.2368 33.7738 38.9805 34.1575 38.6573 34.4806C38.3341 34.8038 37.9504 35.0602 37.5282 35.2351C37.1059 35.41 36.6533 35.5 36.1963 35.5ZM36.1963 22.2745C33.6117 22.2745 31.133 23.3012 29.3054 25.1288C27.4779 26.9564 26.4512 29.4351 26.4512 32.0196C26.4512 39.3285 36.1963 50.1177 36.1963 50.1177C36.1963 50.1177 45.9414 39.3285 45.9414 32.0196C45.9414 29.4351 44.9147 26.9564 43.0871 25.1288C41.2595 23.3012 38.7808 22.2745 36.1963 22.2745Z" fill="#23B54F"/>
</svg>
