<svg width="10" height="6" viewBox="0 0 10 6" fill="none" xmlns="http://www.w3.org/2000/svg">
<rect y="1.13281" width="1.60286" height="6.47978" rx="0.801432" transform="rotate(-45 0 1.13281)" fill="#ffffff"/>
<rect x="8.04297" y="0.00585938" width="1.58807" height="6.48317" rx="0.794037" transform="rotate(45 8.04297 0.00585938)" fill="#ffffff"/>
</svg>
