<svg width="6" height="4" viewBox="0 0 6 4" fill="none" xmlns="http://www.w3.org/2000/svg">
<path fill-rule="evenodd" clip-rule="evenodd" d="M0.633133 0.635181C0.455622 0.815423 0.455622 1.10765 0.633133 1.2879L2.67859 3.36482C2.8561 3.54506 3.1439 3.54506 3.32141 3.36482L5.36687 1.2879C5.54438 1.10765 5.54438 0.815424 5.36687 0.635182C5.18936 0.45494 4.90155 0.45494 4.72404 0.635182L3 2.38575L1.27596 0.635182C1.09845 0.45494 0.810644 0.45494 0.633133 0.635181Z" fill="black"/>
</svg>
