<svg width="7" height="10" viewBox="0 0 7 10" fill="none" xmlns="http://www.w3.org/2000/svg">
  <rect x="1.63281" y="10" width="1.60286" height="6.47978" rx="0.801432" transform="rotate(-135 1.63281 10)" fill="#202020"/>
  <rect x="0.505859" y="1.95703" width="1.58807" height="6.48317" rx="0.794037" transform="rotate(-45 0.505859 1.95703)" fill="#202020"/>
  </svg>