<svg width="100%" height="100%" viewBox="0 0 515 242" fill="none" xmlns="http://www.w3.org/2000/svg">
  <mask id="clip-path" fill="white">
    <path fill-rule="evenodd" clip-rule="evenodd" d="M205 0H20C8.95431 0 0 8.95431 0 20V222C0 233.046 8.95429 242 20 242H495C506.046 242 515 233.046 515 222V20C515 8.9543 506.046 0 495 0H309C309 28.7188 285.719 52 257 52C228.281 52 205 28.7188 205 0Z"/>
  </mask>
  <path fill-rule="evenodd" clip-rule="evenodd" d="M205 0H20C8.95431 0 0 8.95431 0 20V222C0 233.046 8.95429 242 20 242H495C506.046 242 515 233.046 515 222V20C515 8.9543 506.046 0 495 0H309C309 28.7188 285.719 52 257 52C228.281 52 205 28.7188 205 0Z" fill="#2F2F2F"/>
  <path d="M205 0H206V-1H205V0ZM309 0V-1H308V0H309ZM20 1H205V-1H20V1ZM1 20C1 9.50659 9.50659 1 20 1V-1C8.40202 -1 -1 8.40202 -1 20H1ZM1 222V20H-1V222H1ZM20 241C9.50658 241 1 232.493 1 222H-1C-1 233.598 8.40201 243 20 243V241ZM495 241H20V243H495V241ZM514 222C514 232.493 505.493 241 495 241V243C506.598 243 516 233.598 516 222H514ZM514 20V222H516V20H514ZM495 1C505.493 1 514 9.50659 514 20H516C516 8.40202 506.598 -1 495 -1V1ZM309 1H495V-1H309V1ZM257 53C286.271 53 310 29.2711 310 0H308C308 28.1665 285.167 51 257 51V53ZM204 0C204 29.2711 227.729 53 257 53V51C228.833 51 206 28.1665 206 0H204Z" fill="url(#paint0_linear)"/>
  <defs>
    <linearGradient id="paint0_linear" x1="-75.5" y1="62" x2="501.258" y2="329.626" gradientUnits="userSpaceOnUse">
      <stop stop-color="#00F0FF"/>
      <stop offset="1" stop-color="#00F0FF" stop-opacity="0"/>
    </linearGradient>
  </defs>
</svg>