<svg width="8" height="6" viewBox="0 0 8 6" fill="none" xmlns="http://www.w3.org/2000/svg">
<rect x="2.80469" y="5.60742" width="1.13333" height="6.79731" rx="0.566667" transform="rotate(-135 2.80469 5.60742)" fill="#ffffff"/>
<rect y="2.80273" width="1.13333" height="3.96845" rx="0.566667" transform="rotate(-45 0 2.80273)" fill="#ffffff"/>
</svg>
