<svg width="40" height="40" viewBox="0 0 40 40" fill="none" xmlns="http://www.w3.org/2000/svg">
<path d="M31.668 26.6647V10.8314C31.668 8.99805 30.168 7.49805 28.3346 7.49805H19.168" stroke="#202020" stroke-opacity="0.44" stroke-width="2.5" stroke-linecap="round" stroke-linejoin="round"/>
<path d="M23.334 3.33203L18.334 7.4987L23.334 11.6654" stroke="#202020" stroke-opacity="0.44" stroke-width="2.5" stroke-linecap="round" stroke-linejoin="round"/>
<path d="M8.33398 13.332V29.1654C8.33398 30.9987 9.83398 32.4987 11.6673 32.4987H20.834" stroke="#202020" stroke-width="2.5" stroke-linecap="round" stroke-linejoin="round"/>
<path d="M16.668 36.6654L21.668 32.4987L16.668 28.332" stroke="#202020" stroke-width="2.5" stroke-linecap="round" stroke-linejoin="round"/>
<path d="M8.33398 13.334C11.0954 13.334 13.334 11.0954 13.334 8.33398C13.334 5.57256 11.0954 3.33398 8.33398 3.33398C5.57256 3.33398 3.33398 5.57256 3.33398 8.33398C3.33398 11.0954 5.57256 13.334 8.33398 13.334Z" stroke="#202020" stroke-width="2.5" stroke-linecap="round" stroke-linejoin="round"/>
<path d="M31.666 36.666C34.4274 36.666 36.666 34.4274 36.666 31.666C36.666 28.9046 34.4274 26.666 31.666 26.666C28.9046 26.666 26.666 28.9046 26.666 31.666C26.666 34.4274 28.9046 36.666 31.666 36.666Z" stroke="#202020" stroke-width="2.5" stroke-linecap="round" stroke-linejoin="round"/>
</svg>
